[
  {
    "name": "website_overview",
    "dimensions": [
      "ga:date"
    ],
    "metrics": [
      "ga:users",
      "ga:newUsers",
      "ga:sessions",
      "ga:sessionsPerUser",
      "ga:avgSessionDuration",
      "ga:pageviews",
      "ga:pageviewsPerSession",
      "ga:avgTimeOnPage",
      "ga:bounceRate",
      "ga:exitRate"
    ]
  },
  {
    "name": "User",
    "dimensions": [
      "ga:userType",
      "ga:sessionCount",
      "ga:daysSinceLastSession",
      "ga:userDefinedValue",
      "ga:browser",
      "ga:userBucket"
    ],
    "metrics": [
      "ga:users",
      "ga:newUsers",
      "ga:percentNewSessions",
      "ga:sessionsPerUser",
      "ga:avgSessionDuration"
    ]
  },
  {
    "name": "Goal Conversions",
    "dimensions": [
      "ga:referralPath",
      "ga:fullReferrer",
      "ga:campaign",
      "ga:source",
      "ga:medium",
      "ga:sourceMedium",
      "ga:keyword",
      "ga:adContent",
      "ga:socialNetwork"
    ],
    "metrics": [
    ]
  },
  {
    "name": "Session",
    "dimensions": [
      "ga:sessionDurationBucket"
    ],
    "metrics": [
      "ga:sessions",
      "ga:bounces",
      "ga:bounceRate",
      "ga:sessionDuration",
      "ga:avgSessionDuration",
      "ga:uniqueDimensionCombinations",
      "ga:hits"
    ]
  },
  {
    "name": "traffic_sources",
    "dimensions": [
      "ga:date",
      "ga:source",
      "ga:medium",
      "ga:socialNetwork",
      "ga:referralPath",
      "ga:fullReferrer",
      "ga:campaign",
      "ga:sourceMedium",
      "ga:keyword",
      "ga:adContent"
    ],
    "metrics": [
      "ga:organicSearches"
    ]
  },
  {
    "name": "Site Speed",
    "dimensions": [
      "ga:pageLoadTime",
      "ga:pageLoadSample",
      "ga:avgPageLoadTime",
      "ga:domainLookupTime",
      "ga:avgDomainLookupTime",
      "ga:pageDownloadTime",
      "ga:avgPageDownloadTime",
      "ga:redirectionTime"
    ],
    "metrics": [
      "ga:sessions"
    ]
  },
  {
    "name": "System",
    "dimensions": [
      "ga:flashVersion",
      "ga:javaEnabled",
      "ga:language",
      "ga:screenColors",
      "ga:sourcePropertyDisplayName",
      "ga:sourcePropertyTrackingId",
      "ga:screenResolution"
    ],
    "metrics": [
      "ga:sessions"
    ]
  },
  {
    "name": "Page Tracking",
    "dimensions": [
      "ga:hostname",
      "ga:pagePath",
      "ga:pagePathLevel1",
      "ga:pageTitle",
      "ga:landingPagePath",
      "ga:secondPagePath",
      "ga:exitPagePath"
    ],
    "metrics": [
      "ga:pageValue"
    ]
  },
  {
    "name": "Audience",
    "dimensions": [
      "ga:userAgeBracket",
      "ga:userGender",
      "ga:interestInMarketCategory"
    ],
    "metrics": [
    ]
  },
  {
    "name": "Publisher",
    "dimensions": [
    ],
    "metrics": [
    "ga:totalPublisherImpressions",
    "ga:totalPublisherCoverage",
    "ga:totalPublisherMonetizedPageviews",
    "ga:totalPublisherImpressionsPerSession",
    "ga:totalPublisherViewableImpressionsPercent",
    "ga:totalPublisherClicks",
    "ga:totalPublisherCTR",
    "ga:totalPublisherRevenue",
    "ga:totalPublisherRevenuePer1000Sessions"
    ]
  },
  {
    "name": "Ad Exchange",
    "dimensions": [
    ],
    "metrics": [
    "ga:adxImpressions",
    "ga:adxCoverage",
    "ga:adxMonetizedPageviews",
    "ga:adxImpressionsPerSession",
    "ga:adxViewableImpressionsPercent",
    "ga:adxECPM",
    "ga:adxClicks",
    "ga:totalPublisherRevenue",
    "ga:totalPublisherRevenuePer1000Sessions"
    ]
  },
  {
    "name": "Adsense",
    "dimensions": [
      "ga:pagePathLevel1"
    ],
    "metrics": [
    "ga:adsenseRevenue"
    ]
  },
  {
    "name": "Time",
    "dimensions": [
      "ga:date",
      "ga:year",
      "ga:month",
      "ga:week",
      "ga:day",
      "ga:hour",
      "ga:minute",
      "ga:nthMonth",
      "ga:nthWeek"
    ],
    "metrics": [
    ]
  },
  {
    "name": "App Tracking",
    "dimensions": [
      "ga:appInstallerId",
      "ga:appVersion",
      "ga:appName",
      "ga:appId",
      "ga:screenName",
      "ga:screenDepth",
      "ga:landingScreenName",
      "ga:exitScreenName"
    ],
    "metrics": [
      "ga:screenviews"
    ]
  },
  {
    "name": "Event Tracking",
    "dimensions": [
      "ga:eventCategory",
      "ga:eventAction",
      "ga:eventLabel"
    ],
    "metrics": [
      "ga:totalEvents",
      "ga:uniqueEvents",
      "ga:avgEventValue",
      "ga:eventValue",
      "ga:sessionsWithEvent",
      "ga:eventsPerSessionWithEvent
    ]
  },
  {
    "name": "DoubleClick Campaign Manager",
    "dimensions": [
      "ga:dcmClickAd"
    ],
    "metrics": [
      "ga:dcmFloodlightQuantity",
      "ga:dcmFloodlightRevenue"
    ]
  },
  {
    "name": "Ecommerce",
    "dimensions": [
      "ga:transactionId",
      "ga:affiliation",
      "ga:sessionsToTransaction"
    ],
    "metrics": [
      "ga:totalEvents",
      "ga:uniqueEvents",
      "ga:eventValue",
      "ga:avgEventValue",
      "ga:sessionsWithEvent",
      "ga:eventsPerSessionWithEvent"
    ]
  },
 {
    "name": "DoubleClick for Publishers",
    "dimensions": [
    ],
    "metrics": [
      "ga:dfpRevenuePer1000Sessions"
    ]
  },
 {
    "name": "Lifetime Value and Cohorts",
    "dimensions": [
    "ga:dbmLastEventAdvertiser",
    "ga:dbmLastEventAdvertiserId" 
    ],
    "metrics": [
      "ga:dbmCPA"
    ]
  },
 {
    "name": "DoubleClick Bid Manager",
    "dimensions": [
    "ga:dbmLastEventAdvertiser",
    "ga:dbmLastEventAdvertiserId",
    "ga:dbmLastEventCreativeId",
    "ga:dbmLastEventExchange",
    "ga:dbmLastEventExchangeId",
    "ga:dbmLastEventInsertionOrder"
    ],
    "metrics": [
    "ga:dbmCPA",
    "ga:dbmCPC",
    "ga:dbmCPM",
    "ga:dbmCTR",
    "ga:dbmClicks",
    "ga:dbmConversions",
    "ga:dbmCost",
    "ga:dbmImpressions",
    "ga:dbmROAS"
    ]
  },
 {
    "name": "DoubleClick Search",
    "dimensions": [
    "ga:dsAdGroup",
    "ga:dsAdGroupId",
    "ga:dsAdvertiser",
    "ga:dsAdvertiserId",
    "ga:dsAgency",
    "ga:dsAgencyId",
    "ga:dsCampaign"
    ],
    "metrics": [
    "ga:dbmCPA",
    "ga:dsCTR",
    "ga:dsClicks",
    "ga:dsCost",
    "ga:dbmClicks",
    "ga:dsImpressions",
    "ga:dsProfit"
    ]
  },
 {
    "name": "Channel Grouping",
    "dimensions": [
    "ga:channelGrouping" 
    ],
    "metrics": [
    ]
  },
 {
    "name": "DoubleClick for Publishers Backfill",
    "dimensions": [
      "ga:dfpLineItemId",
      "ga:dfpLineItemName",
    ],
    "metrics": [
      "ga:backfillImpressions",
      "ga:backfillCoverage",
      "ga:backfillMonetizedPageviews",
      "ga:backfillImpressionsPerSession",
      "ga:backfillViewableImpressionsPercent",
      "ga:backfillClicks",
      "ga:backfillCTR",
      "ga:backfillRevenue",
      "ga:backfillRevenuePer1000Sessions"
    ]
  },
  {
    "name": "Social Interactions",
    "dimensions": [
      "ga:socialInteractionNetwork",
      "ga:socialInteractionAction",
      "ga:socialInteractionNetworkAction",
      "ga:socialInteractionTarget",
      "ga:socialEngagementType"
    ],
    "metrics": [
      "ga:socialInteractions",
      "ga:uniqueSocialInteractions",
      "ga:socialInteractionsPerSession"
    ]
  },
  {
    "name": "User Timings",
    "dimensions": [
      "ga:userTimingCategory",
      "ga:userTimingLabel",
      "ga:userTimingVariable"
    ],
    "metrics": [
      "ga:userTimingValue",
      "ga:userTimingSample",
      "ga:avgUserTimingValue"
    ]
  },
  {
    "name": "Exceptions",
    "dimensions": [
      "ga:exceptionDescription"
    ],
    "metrics": [
      "ga:exceptions",
      "ga:exceptionsPerScreenview",
      "ga:fatalExceptions",
      "ga:fatalExceptionsPerScreenview
    ]
  },
  {
    "name": "Content Experiments",
    "dimensions": [
      "ga:experimentId",
      "ga:experimentVariant",
      "ga:experimentCombination",
      "ga:experimentName"
    ],
    "metrics": [
]
  },
  {
    "name": "Custom Variables or Columns",
    "dimensions": [
      "ga:dimensionXX",
      "ga:customVarNameXX",
      "ga:customVarValueXX"
    ],
    "metrics": [
      "ga:metricXX"
    ]
  },
 {
    "name": "Geo Network",
    "dimensions": [
      "ga:browser",
      "ga:browserVersion",
      "ga:operatingSystem",
      "ga:operatingSystemVersion",
      "ga:mobileDeviceBranding",
      "ga:mobileDeviceModel",
      "ga:mobileInputSelector",
      "ga:mobileDeviceInfo",
      "ga:deviceCategory"
    ],
    "metrics": [
      "ga:sessions"
    ]
  },
  {
    "name": "Platform or Device",
    "dimensions": [
      "ga:browser",
      "ga:browserVersion",
      "ga:operatingSystem",
      "ga:operatingSystemVersion",
      "ga:mobileDeviceBranding",
      "ga:mobileDeviceModel",
      "ga:mobileInputSelector",
      "ga:mobileDeviceInfo",
      "ga:deviceCategory"
    ],
    "metrics": [
      "ga:sessions"
    ]
  },
  {
    "name": "Goal Conversions",
    "dimensions": [
      "ga:referralPath",
      "ga:fullReferrer",
      "ga:campaign",
      "ga:source",
      "ga:medium",
      "ga:sourceMedium",
      "ga:keyword",
      "ga:adContent",
      "ga:socialNetwork"
    ],
    "metrics": [ ]
  },
  {
    "name": "Adwords",
    "dimensions": [
      "ga:adGroup",
      "ga:adSlot",
      "ga:adDistributionNetwork",
      "ga:adMatchType",
      "ga:adMatchedQuery",
      "ga:adPlacementDomain",
      "ga:adPlacementUrl",
      "ga:adFormat"
    ],
    "metrics": [
      "ga:sessions"
    ]
  },
  {
    "name": "Internal_Search",
    "dimensions": [
      "ga:date",
      "ga:continent",
      "ga:subContinent",
      "ga:country",
      "ga:region",
      "ga:metro",
      "ga:city",
      "ga:searchUsed",
      "ga:searchKeyword",
      "ga:searchKeywordRefinement",
      "ga:searchCategory",
      "ga:searchStartPage",
      "ga:searchDestinationPage'",
      "ga:searchAfterDestinationPage"
    ],
    "metrics": [
      "ga:users",
      "ga:newUsers",
      "ga:sessions",
      "ga:sessionsPerUser",
      "ga:avgSessionDuration",
      "ga:pageviews",
      "ga:pageviewsPerSession",
      "ga:avgTimeOnPage",
      "ga:bounceRate",
      "ga:exitRate",
      "ga:searchResultViews"
    ]
  },
  {
    "name": "monthly_active_users",
    "dimensions": [
      "ga:date"
    ],
    "metrics": [
      "ga:30dayUsers"
    ]
  },
  {
    "name": "four_weekly_active_users",
    "dimensions": [
      "ga:date"
    ],
    "metrics": [
      "ga:28dayUsers"
    ]
  },
  {
    "name": "two_weekly_active_users",
    "dimensions": [
      "ga:date"
    ],
    "metrics": [
      "ga:14dayUsers"
    ]
  },
  {
    "name": "weekly_active_users",
    "dimensions": [
      "ga:date"
    ],
    "metrics": [
      "ga:7dayUsers"
    ]
  },
  {
    "name": "daily_active_users",
    "dimensions": [
      "ga:date"
    ],
    "metrics": [
      "ga:1dayUsers"
    ]
  },
  {
    "name": "devices",
    "dimensions": [
      "ga:date",
      "ga:deviceCategory",
      "ga:operatingSystem",
      "ga:browser"
    ],
    "metrics": [
      "ga:users",
      "ga:newUsers",
      "ga:sessions",
      "ga:sessionsPerUser",
      "ga:avgSessionDuration",
      "ga:pageviews",
      "ga:pageviewsPerSession",
      "ga:avgTimeOnPage",
      "ga:bounceRate",
      "ga:exitRate"
    ]
  }
]
